^D:\LANDWATERSUN\REPOSITORIES\STEGO\DRBG TEST\NIST\STATISTICAL TESTS SUITE\DEBUG\APPROXIMATEENTROPY.OBJ|D:\LANDWATERSUN\REPOSITORIES\STEGO\DRBG TEST\NIST\STATISTICAL TESTS SUITE\DEBUG\ASSESS.OBJ|D:\LANDWATERSUN\REPOSITORIES\STEGO\DRBG TEST\NIST\STATISTICAL TESTS SUITE\DEBUG\BLOCKFREQUENCY.OBJ|D:\LANDWATERSUN\REPOSITORIES\STEGO\DRBG TEST\NIST\STATISTICAL TESTS SUITE\DEBUG\CEPHES.OBJ|D:\LANDWATERSUN\REPOSITORIES\STEGO\DRBG TEST\NIST\STATISTICAL TESTS SUITE\DEBUG\CUSUM.OBJ|D:\LANDWATERSUN\REPOSITORIES\STEGO\DRBG TEST\NIST\STATISTICAL TESTS SUITE\DEBUG\DFFT.OBJ|D:\LANDWATERSUN\REPOSITORIES\STEGO\DRBG TEST\NIST\STATISTICAL TESTS SUITE\DEBUG\DISCRETEFOURIERTRANSFORM.OBJ|D:\LANDWATERSUN\REPOSITORIES\STEGO\DRBG TEST\NIST\STATISTICAL TESTS SUITE\DEBUG\ERF.OBJ|D:\LANDWATERSUN\REPOSITORIES\STEGO\DRBG TEST\NIST\STATISTICAL TESTS SUITE\DEBUG\FREQUENCY.OBJ|D:\LANDWATERSUN\REPOSITORIES\STEGO\DRBG TEST\NIST\STATISTICAL TESTS SUITE\DEBUG\GENERATORS.OBJ|D:\LANDWATERSUN\REPOSITORIES\STEGO\DRBG TEST\NIST\STATISTICAL TESTS SUITE\DEBUG\GENUTILS.OBJ|D:\LANDWATERSUN\REPOSITORIES\STEGO\DRBG TEST\NIST\STATISTICAL TESTS SUITE\DEBUG\LINEARCOMPLEXITY.OBJ|D:\LANDWATERSUN\REPOSITORIES\STEGO\DRBG TEST\NIST\STATISTICAL TESTS SUITE\DEBUG\LONGESTRUNOFONES.OBJ|D:\LANDWATERSUN\REPOSITORIES\STEGO\DRBG TEST\NIST\STATISTICAL TESTS SUITE\DEBUG\MATRIX.OBJ|D:\LANDWATERSUN\REPOSITORIES\STEGO\DRBG TEST\NIST\STATISTICAL TESTS SUITE\DEBUG\NIST.OBJ|D:\LANDWATERSUN\REPOSITORIES\STEGO\DRBG TEST\NIST\STATISTICAL TESTS SUITE\DEBUG\NONOVERLAPPINGTEMPLATEMATCHINGS.OBJ|D:\LANDWATERSUN\REPOSITORIES\STEGO\DRBG TEST\NIST\STATISTICAL TESTS SUITE\DEBUG\OVERLAPPINGTEMPLATEMATCHINGS.OBJ|D:\LANDWATERSUN\REPOSITORIES\STEGO\DRBG TEST\NIST\STATISTICAL TESTS SUITE\DEBUG\RANDOMEXCURSIONS.OBJ|D:\LANDWATERSUN\REPOSITORIES\STEGO\DRBG TEST\NIST\STATISTICAL TESTS SUITE\DEBUG\RANDOMEXCURSIONSVARIANT.OBJ|D:\LANDWATERSUN\REPOSITORIES\STEGO\DRBG TEST\NIST\STATISTICAL TESTS SUITE\DEBUG\RANK.OBJ|D:\LANDWATERSUN\REPOSITORIES\STEGO\DRBG TEST\NIST\STATISTICAL TESTS SUITE\DEBUG\RUNS.OBJ|D:\LANDWATERSUN\REPOSITORIES\STEGO\DRBG TEST\NIST\STATISTICAL TESTS SUITE\DEBUG\SERIAL.OBJ|D:\LANDWATERSUN\REPOSITORIES\STEGO\DRBG TEST\NIST\STATISTICAL TESTS SUITE\DEBUG\UNIVERSAL.OBJ|D:\LANDWATERSUN\REPOSITORIES\STEGO\DRBG TEST\NIST\STATISTICAL TESTS SUITE\DEBUG\UTILITIES.OBJ
D:\LANDWATERSUN\REPOSITORIES\STEGO\DRBG TEST\BIN\DEBUG\NIST.ILK
D:\LANDWATERSUN\REPOSITORIES\STEGO\DRBG TEST\BIN\DEBUG\NIST.DLL
D:\LANDWATERSUN\REPOSITORIES\STEGO\DRBG TEST\BIN\DEBUG\NIST.PDB
