^C:\USERS\JOHN\DOCUMENTS\VISUAL STUDIO 2010\PROJECTS\DRBG TEST\NIST\STATISTICAL TESTS SUITE\DEBUG\NIST_MANIFEST.RC
/nologo /fo"Debug\nist.dll.embed.manifest.res" Debug\nist_manifest.rc /nologo /fo"Debug\nist.dll.embed.manifest.res" C:\USERS\JOHN\DOCUMENTS\VISUAL STUDIO 2010\PROJECTS\DRBG TEST\NIST\STATISTICAL TESTS SUITE\DEBUG\NIST_MANIFEST.RC
^C:\USERS\JOHN\DOWNLOADS\DRBG_TEST\DRBG TEST\NIST\STATISTICAL TESTS SUITE\DEBUG\NIST_MANIFEST.RC
/nologo /fo"Debug\nist.dll.embed.manifest.res" Debug\nist_manifest.rc /nologo /fo"Debug\nist.dll.embed.manifest.res" C:\USERS\JOHN\DOWNLOADS\DRBG_TEST\DRBG TEST\NIST\STATISTICAL TESTS SUITE\DEBUG\NIST_MANIFEST.RC
